…
    ##  [1] "iso_a2"    "name_long" "continent" "region_un" "subregion" "type"      "area_km2" 
    ##  [8] "pop"       "lifeExp"   "gdpPercap" "geom"

``` r
world
```

    ## Simple feature collection with 177 features and 10 fields
    ## Geometry type: MULTIPOLYGON
    ## Dimension:     XY
    ## Bounding box:  xmin: -180 ymin: -89.9 xmax: 180 ymax: 83.64513
    ## Geodetic CRS:  WGS 84
    ## # A tibble: 177 × 11
    ##    iso_a2 name_long        continent  region_un subregion type  area_km2     pop lifeExp gdpPercap
    ##  * <chr>  <chr>            <chr>      <chr>     <chr>     <chr>    <dbl>   <dbl>   <dbl>     <dbl>
    ##  1 FJ     Fiji             Oceania    Oceania   Melanesia Sove…   1.93e4  8.86e5    70.0     8222.
    ##  2 TZ     Tanzania         Africa     Africa    Eastern … Sove…   9.33e5  5.22e7    64.2     2402.
    ##  3 EH     Western Sahara   Africa     Africa    Northern… Inde…   9.63e4 NA         NA         NA 
    ##  4 CA     Canada           North Ame… Americas  Northern… Sove…   1.00e7  3.55e7    82.0    43079.
    ##  5 US     United States    North Ame… Americas  Northern… Coun…   9.51e6  3.19e8    78.8    51922.
    ##  6 KZ     Kazakhstan       Asia       Asia      Central … Sove…   2.73e6  1.73e7    71.6    23587.
    ##  7 UZ     Uzbekistan       Asia       Asia      Central … Sove…   4.61e5  3.08e7    71.0     5371.
    ##  8 PG     Papua New Guinea Oceania    Oceania   Melanesia Sove…   4.65e5  7.76e6    65.2     3709.
    ##  9 ID     Indonesia        Asia       Asia      South-Ea… Sove…   1.82e6  2.55e8    68.9    10003.
    ## 10 AR     Argentina        South Ame… Americas  South Am… Sove…   2.78e6  4.30e7    76.3    18798.
    ## # ℹ 167 more rows
    ## # ℹ 1 more variable: geom <MULTIPOLYGON [°]>
…
Add layers to existing map

``` r
(world_asia <- world %>% filter(continent == "Asia"))
```

    ## Simple feature collection with 47 features and 10 fields
    ## Geometry type: MULTIPOLYGON
    ## Dimension:     XY
    ## Bounding box:  xmin: 26.04335 ymin: -10.35999 xmax: 145.5431 ymax: 55.38525
    ## Geodetic CRS:  WGS 84
    ## # A tibble: 47 × 11
    ##    iso_a2 name_long          continent region_un subregion type  area_km2    pop lifeExp gdpPercap
    ##  * <chr>  <chr>              <chr>     <chr>     <chr>     <chr>    <dbl>  <dbl>   <dbl>     <dbl>
    ##  1 KZ     Kazakhstan         Asia      Asia      Central … Sove… 2729811. 1.73e7    71.6    23587.
    ##  2 UZ     Uzbekistan         Asia      Asia      Central … Sove…  461410. 3.08e7    71.0     5371.
    ##  3 ID     Indonesia          Asia      Asia      South-Ea… Sove… 1819251. 2.55e8    68.9    10003.
    ##  4 TL     Timor-Leste        Asia      Asia      South-Ea… Sove…   14715. 1.21e6    68.3     6263.
    ##  5 IL     Israel             Asia      Asia      Western … Coun…   22991. 8.22e6    82.2    31702.
    ##  6 LB     Lebanon            Asia      Asia      Western … Sove…   10099. 5.60e6    79.2    13831.
    ##  7 PS     Palestine          Asia      Asia      Western … Disp…    5037. 4.29e6    73.1     4320.
    ##  8 JO     Jordan             Asia      Asia      Western … Sove…   89207. 8.81e6    74.0     8622.
    ##  9 AE     United Arab Emira… Asia      Asia      Western … Sove…   79881. 9.07e6    76.9    63943.
    ## 10 QA     Qatar              Asia      Asia      Western … Sove…   11328. 2.37e6    77.9   120860.
    ## # ℹ 37 more rows
    ## # ℹ 1 more variable: geom <MULTIPOLYGON [°]>
…
cex <- sqrt(world$pop) / 10000

(world_cents <- st_centroid(world, of_largest = TRUE))
```

    ## Warning: st_centroid assumes attributes are constant over geometries

    ## Simple feature collection with 177 features and 10 fields
    ## Geometry type: POINT
    ## Dimension:     XY
    ## Bounding box:  xmin: -103.5729 ymin: -84.96858 xmax: 178.5684 ymax: 73.15078
    ## Geodetic CRS:  WGS 84
    ## # A tibble: 177 × 11
    ##    iso_a2 name_long        continent  region_un subregion type  area_km2     pop lifeExp gdpPercap
    ##  * <chr>  <chr>            <chr>      <chr>     <chr>     <chr>    <dbl>   <dbl>   <dbl>     <dbl>
    ##  1 FJ     Fiji             Oceania    Oceania   Melanesia Sove…   1.93e4  8.86e5    70.0     8222.
    ##  2 TZ     Tanzania         Africa     Africa    Eastern … Sove…   9.33e5  5.22e7    64.2     2402.
    ##  3 EH     Western Sahara   Africa     Africa    Northern… Inde…   9.63e4 NA         NA         NA 
    ##  4 CA     Canada           North Ame… Americas  Northern… Sove…   1.00e7  3.55e7    82.0    43079.
    ##  5 US     United States    North Ame… Americas  Northern… Coun…   9.51e6  3.19e8    78.8    51922.
    ##  6 KZ     Kazakhstan       Asia       Asia      Central … Sove…   2.73e6  1.73e7    71.6    23587.
    ##  7 UZ     Uzbekistan       Asia       Asia      Central … Sove…   4.61e5  3.08e7    71.0     5371.
    ##  8 PG     Papua New Guinea Oceania    Oceania   Melanesia Sove…   4.65e5  7.76e6    65.2     3709.
    ##  9 ID     Indonesia        Asia       Asia      South-Ea… Sove…   1.82e6  2.55e8    68.9    10003.
    ## 10 AR     Argentina        South Ame… Americas  South Am… Sove…   2.78e6  4.30e7    76.3    18798.
    ## # ℹ 167 more rows
    ## # ℹ 1 more variable: geom <POINT [°]>
…
